…
[208] "Non-modelled species" "Non-modelled species" "Modelled species"    
[211] "Non-modelled species" "Non-modelled species" "Non-modelled species"
[214] "Non-modelled species" "Non-modelled species" "Non-modelled species"
[217] "Non-modelled species" "Non-modelled species" "Modelled species"    
[220] "Modelled species"     "Non-modelled species" "Non-modelled species"
[223] "Non-modelled species" "Non-modelled species" "Non-modelled species"
[226] "Non-modelled species" "Non-modelled species" "Non-modelled species"
[229] "Non-modelled species" "Modelled species"     "Non-modelled species"
[232] "Modelled species"     "Non-modelled species" "Non-modelled species"
[235] "Non-modelled species" "Modelled species"     "Non-modelled species"
[238] "Modelled species"     "Modelled species"     "Non-modelled species"
[241] "Non-modelled species" "Non-modelled species" "Non-modelled species"
[244] "Non-modelled species" "Modelled species"     "Non-modelled species"
[247] "Non-modelled species"
# A tibble: 247 × 10
   species               n_sites total_abundance mean_BL pct_winged modeled
   <chr>                   <int>           <dbl>   <dbl>      <dbl> <chr>  
 1 Abax ovalis                 9             201   13.5          NA Non-mo…
 2 Abax parallelepipedus      37            1013   18.5           0 Modell…
 3 Abax parallelus             8              39   15.3           0 Non-mo…
 4 Acupalpus                   3               9   NA            NA Non-mo…
 5 Acupalpus brunnipes         1               3    3.25         NA Non-mo…
 6 Acupalpus dubius            2               2    2.9           1 Non-mo…
 7 Acupalpus flavicollis       1               1    3.2           1 Non-mo…
 8 Acupalpus meridianus        9              21    3.62          1 Non-mo…
 9 Acupalpus notatus           1               2    3.25         NA Non-mo…
10 Acupalpus parvulus          2               2   NA             1 Non-mo…
# ℹ 237 more rows
# ℹ 4 more variables: log_total_abundance <dbl>, log_n_sites <dbl>,
#   log_BL <dbl>, full_wing <chr>
# ℹ Use `print(n = ...)` to see more rows
…
